<?xml version="1.0" encoding="UTF-8" standalone="no"?>
<svg width="20px" height="11px" viewBox="0 0 20 11" version="1.1" xmlns="http://www.w3.org/2000/svg" xmlns:xlink="http://www.w3.org/1999/xlink">
    <!-- Generator: Sketch 40 (33762) - http://www.bohemiancoding.com/sketch -->
    <title>Group 2</title>
    <desc>Created with Sketch.</desc>
    <defs>
        <path d="M3.80002222,-3.41060513e-13 L16.2005193,-3.41060513e-13 C19.003188,-3.41060513e-13 20.6075462,2.01756954 19.7841218,4.50585969 L19.1261604,6.49414031 C18.3026606,8.9826579 16.1010594,11 14.1987653,11 L5.80177624,11 C3.90395083,11 1.69780565,8.98243046 0.874381184,6.49414031 L0.216419767,4.50585969 C-0.607079965,2.0173421 0.990754267,-3.41060513e-13 3.80002222,-3.41060513e-13 Z" id="path-1"></path>
        <mask id="mask-2" maskContentUnits="userSpaceOnUse" maskUnits="objectBoundingBox" x="0" y="0" width="20" height="11" fill="white">
            <use xlink:href="#path-1"></use>
        </mask>
    </defs>
    <g id="Page-1" stroke="none" stroke-width="1" fill="none" fill-rule="evenodd">
        <g id="Group-2" stroke="#6699CC">
            <use id="Rectangle" mask="url(#mask-2)" stroke-width="4" xlink:href="#path-1"></use>
            <path d="M7.5,1.5 L7.5,9.5" id="Line" stroke-linecap="square"></path>
            <path d="M12.5,1.5 L12.5,9.5" id="Line" stroke-linecap="square"></path>
            <path d="M2.5,5.5 L17.5,5.5" id="Line" stroke-linecap="square"></path>
        </g>
    </g>
</svg>